{
  "images" : [
    {
      "idiom" : "universal",
      "language-direction" : "left-to-right",
      "scale" : "1x"
    },
    {
      "idiom" : "universal",
      "language-direction" : "right-to-left",
      "scale" : "1x"
    },
    {
      "filename" : "edit_icon@2x-2.png",
      "idiom" : "universal",
      "language-direction" : "left-to-right",
      "scale" : "2x"
    },
    {
      "filename" : "edit_icon@2x-3.png",
      "idiom" : "universal",
      "language-direction" : "right-to-left",
      "scale" : "2x"
    },
    {
      "filename" : "edit_icon@3x.png",
      "idiom" : "universal",
      "language-direction" : "left-to-right",
      "scale" : "3x"
    },
    {
      "filename" : "edit_icon@3x-1.png",
      "idiom" : "universal",
      "language-direction" : "right-to-left",
      "scale" : "3x"
    }
  ],
  "info" : {
    "author" : "xcode",
    "version" : 1
  },
  "properties" : {
    "template-rendering-intent" : "template"
  }
}
